%YAML 1.1
%TAG !u! tag:unity3d.com,2011:
--- !u!114 &11400000
MonoBehaviour:
  m_ObjectHideFlags: 0
  m_CorrespondingSourceObject: {fileID: 0}
  m_PrefabInstance: {fileID: 0}
  m_PrefabAsset: {fileID: 0}
  m_GameObject: {fileID: 0}
  m_Enabled: 1
  m_EditorHideFlags: 0
  m_Script: {fileID: 11500000, guid: 5f1b382dc1723df41987e2bbe355441e, type: 3}
  m_Name: Skill_AoePull
  m_EditorClassIdentifier: 
  <SkillName>k__BackingField: 
  <SkillDescription>k__BackingField: 
  <Damage>k__BackingField: 6
  <ChargeCount>k__BackingField: 0
  <Cooldown>k__BackingField: 7
  <CancelCooldown>k__BackingField: 1
  <CastTime>k__BackingField: 0.5
  <Duration>k__BackingField: 1
  <MovementPenalty>k__BackingField: 0.5
  <IsInterruptable>k__BackingField: 0
  <IsQueueable>k__BackingField: 0
  <IsCancellable>k__BackingField: 0
  <DamageMask>k__BackingField:
    serializedVersion: 2
    m_Bits: 2048
  <Projectile>k__BackingField: {fileID: 0}
  <ProjectileCount>k__BackingField: 1
  <ProjectileSpeed>k__BackingField: 8
  <ComboCount>k__BackingField: 0
  <ComboDamageMult>k__BackingField: 0
  <StunDuration>k__BackingField: 0
  <KnockBackPower>k__BackingField: 0
  <AreaOfEffect>k__BackingField: 3
  <Range>k__BackingField: 1
  <CollisionMask>k__BackingField:
    serializedVersion: 2
    m_Bits: 0
  <KnockBackDuration>k__BackingField: 0
  <ProjectileLifetime>k__BackingField: 0
  <TargetSkillTree>k__BackingField: {fileID: 11400000, guid: 16bef20d305bb96419dfeb73fe8a0860, type: 2}
  customInputs:
    keys:
    - new-input-0
    indexes: 00000000
    types: 00000000
    floatValues: []
    intValues: 
    uintValues: 
    boolValues: 
    stringValues: []
    vectorValues:
    - {x: 0, y: 0, z: 0}
    layerValues: []
    quaternionValues: []
    gameobjectValues: []
    transformValues: []
    entityValues: []
